@startuml

!define SHOW_PACKAGES
!include ../doc/dappsys.puml

!ifdef SHOW_PACKAGES
package Gate.sol {
    class Gate
}
!endif

class Gate {
    +DSAuthority authority
    __
    +Gate(authority)
    +transferFrom(src, dst, wad)
}

Gate o- DSRoles
DSToken <|-- Gate

@enduml
