{
  "development": {
    "username": "oax",
    "password": "oaxrules",
    "database": "oax",
    "host": "127.0.0.1",
    "dialect": "mysql"
  },
  "test": {
    "username": "",
    "password": null,
    "database": "",
    "host": "",
    "dialect": "mysql"
  },
  "production": {
    "username": "",
    "password": null,
    "database": "",
    "host": "127.0.0.1",
    "dialect": "mysql"
  }
}
